diff_num_hist|||-10.5 10.5 -1 -1 21
unmatched_number_hist|||-0.5 5.5 -1 -1 6
diff_cell_per_cluster||_1|0 1000 -1 -1 50
diff_cell_per_cluster||_2|0 500 -1 -1 50
diff_cell_per_cluster||_3|0 100 -1 -1 50
diff_cell_per_cluster||_4|0 10 -1 -1 50
diff_cell_vs_delta_phi||_1|0 1000 -1 -1 50
diff_cell_vs_delta_phi||_2|0 500 -1 -1 50
diff_cell_vs_delta_phi||_3|0 100 -1 -1 50
diff_cell_vs_delta_phi||_4|0 10 -1 -1 50
delta_eta_hist||_2|-10 10 -1 -1 100
delta_eta_hist||_1|-0.25 0.25 -1 -1 100
delta_phi_hist|||-3.2 3.2 -1 -1 100
delta_phi_hist||_full|-6.3 6.3 -1 -1 100
delta_E_hist||_1|-200 200 -1 -1 100
delta_E_hist||_2|-100 100 -1 -1 100
delta_E_hist||_3|-10 10 -1 -1 100
delta_E_hist||_4|-1 1 -1 -1 100
delta_Et_hist||_1|-20 20 -1 -1 100
delta_Et_hist||_2|-10 10 -1 -1 100
delta_Et_hist||_3|-1 1 -1 -1 100
delta_Et_hist||_4|-0.1 0.1 -1 -1 100
cluster_phi_hist|||-3.2 3.2 -1 -1 100
cluster_phi_hist||_full|-6.3 6.3 -1 -1 100
equal_cells_delta_phi|||-3.2 3.2 -1 -1 100
equal_cells_delta_phi||_full|-6.3 6.3 -1 -1 100
equal_cells_delta_phi||_1|-1.6 1.6 -1 -1 100
equal_cells_delta_phi||_2|-0.8 0.8 -1 -1 100
delta_phi_vs_cpu_size_hist2d||_full|-1 -1 -1 -1 50
delta_phi_vs_cpu_size_hist2d||_1|-6.4 6.4 0 10000 50
delta_phi_vs_cpu_size_hist2d||_2|-3.2 3.2 0 10000 50
delta_phi_vs_cpu_size_hist2d||_3|-1.6 1.6 0 10000 50
delta_phi_vs_gpu_size_hist2d||_full|-1 -1 -1 -1 50
delta_phi_vs_gpu_size_hist2d||_1|-6.4 6.4 0 10000 50
delta_phi_vs_gpu_size_hist2d||_2|-3.2 3.2 0 10000 50
delta_phi_vs_gpu_size_hist2d||_3|-1.6 1.6 0 10000 50
time_invratio_histogram||_2|0 10 -1 -1 50
time_invratio_histogram||_1|0 15 -1 -1 75
time_invratio_histogram||_0|0 20 -1 -1 75
